0.	18.92
0.5	19.045152597709556
1.	19.421846867071377
1.5	20.05379447528176
2.	20.947196043952626
2.5	22.110787989601917
3.	23.555960593959448
3.5	25.297008817511166
4.	27.351619061940678
4.5	29.741784295659095
5.	32.49555970681266
5.5	35.65070761586466
6.	39.26370266629204
6.5	43.453747117725726
7.	48.627209353937886
7.5	53.6803709706784
8.	58.430110816440084
8.5	63.08286773596062
9.	67.67907278865376
9.5	72.2375085287371
10.	76.76891999348815
10.5	81.28009752948324
11.	85.77562013316815
11.5	90.25872257840182
12.	94.73177214343876
12.5	99.19655029201948
13.	103.6544284807298
13.5	108.10648273874612
14.	112.553571016855
14.5	116.99638695286278
15.	121.43549818090028
15.5	125.87137421482566
16.	130.30440712234181
16.5	134.734927105341
17.	139.16321441232128
17.5	143.5895085647871
18.	148.01401558684807
18.5	152.4369137302114
19.	156.85835805138814
19.5	161.27848410353192
20.	165.6974109382867
