0.	111.3
0.5	111.42502596613474
1.	111.80031437390794
1.5	112.42649676251351
2.	113.30462576899889
2.5	114.4361753576311
3.	115.82304138488169
3.5	117.467542745113
4.	119.37242341486936
4.5	121.54085579062594
5.	123.97644579904116
5.5	126.68324035495998
6.	129.66573785734303
6.5	132.9289025565365
7.	136.47818381137887
7.5	140.31954150089848
8.	144.45947919093575
8.5	148.9050871225862
9.	153.66409775028853
9.5	158.74495751139966
10.	164.156919914514
10.5	169.91016715220496
11.	176.01597072244064
11.5	182.48690677558199
12.	189.33715056267633
12.5	196.58288931717746
13.	204.24292010396988
13.5	212.33955186565208
14.	220.90004138916328
14.5	229.95904966145216
15.	239.5632916001034
15.5	249.7818451384341
16.	260.74066933052745
16.5	272.9513621582851
17.	286.1178493847961
17.5	298.2415293006193
18.	309.99017286289416
18.5	321.5375077731034
19.	332.945550106476
19.5	344.24934863722996
20.	355.4714717351195
