0.	891.02
0.5	891.1450032440928
1.	891.5200392793851
1.5	892.1451870149555
2.	893.0205779660675
2.5	894.1463962546256
3.	895.5228786102758
3.5	897.150314372631
4.	899.029045495258
4.5	901.1594665521327
5.	903.5420247474776
5.5	906.1772199299869
6.	909.0656046126179
6.5	912.2077839992123
7.	915.6044160194022
7.5	919.256211373374
8.	923.1639335882164
8.5	927.3283990876806
9.	931.7504772774056
9.5	936.4310906477342
10.	941.3712148964639
10.5	946.571879073993
11.	952.0341657535027
11.5	957.7592112290331
12.	963.7482057444108
12.5	970.0023937562798
13.	976.5230742346088
13.5	983.3116010043461
14.	990.369383132079
14.5	997.6978853618403
15.	1005.2986286044957
15.5	1013.1731904854354
16.	1021.3232059556356
16.5	1029.7503679715671
17.	1038.4564282497645
17.5	1047.4431981024202
18.	1056.7125493607914
18.5	1066.2664153938347
19.	1076.106792230088
19.5	1086.2357397915341
20.	1096.655383248971
