0.	355.32
0.5	355.4450081347481
1.	355.82009849372434
1.5	356.4454689414639
2.	357.32144925440224
2.5	358.44850112792994
3.	359.82721819377133
3.5	361.458326055183
4.	363.342682349612
4.5	365.48127685064173
5.	367.875231623214
5.5	370.5258012483495
6.	373.43437313585065
6.5	376.6024679458306
7.	380.03174014235395
7.5	383.72397870508473
8.	387.68110802761794
8.5	391.9051890342104
9.	396.3984205499741
9.5	401.16314096336674
10.	406.2018302240413
10.5	411.5171122240348
11.	417.1117576159032
11.5	422.98868712804494
12.	429.15097544526185
12.5	435.6018557318546
13.	442.34472488562534
13.5	449.3831496244742
14.	456.72087352335126
14.5	464.3618251388666
15.	472.31012738281134
15.5	480.5701083351769
16.	489.1463137236945
16.5	498.0435213421988
17.	507.2667577369354
17.5	516.8213175618175
18.	526.7127860951197
18.5	536.9470655278534
19.	547.5304057869289
19.5	558.4694408567922
20.	569.771231829654
