0.	117.72
0.5	117.84502455031561
1.	118.22029723383119
1.5	118.84641515762205
2.	119.72437356077307
2.5	120.85556600824272
3.	122.24178486837232
3.5	123.88522228104125
4.	125.78847188474231
4.5	127.95453163521186
5.	130.3868081180879
5.5	133.08912283692032
6.	136.06572105074338
6.5	139.32128384940378
7.	142.8609442998066
7.5	146.69030868612475
8.	150.8154841217629
8.5	155.24311415949543
9.	159.98042451194658
9.5	165.03528168332286
10.	170.41626830804168
10.5	176.1327804582371
11.	182.19515439441844
11.5	188.6148336619803
12.	195.40459291778632
12.5	202.57884396219168
13.	210.1540651991786
13.5	218.14942448641065
14.	226.58772125046406
14.5	235.4968916216224
15.	244.91259622394932
15.5	254.8831550393336
16.	265.48053664524866
16.5	276.8275763830289
17.	289.0366172669553
17.5	301.53346482476167
18.	313.6973355975648
18.5	325.5908304458252
19.	337.3075923439568
19.5	348.89738185428104
20.	360.3901676355051
