0.	203.06
0.5	203.18501423372007
1.	203.56017233524656
1.5	204.18582050750945
2.	205.0625357672124
2.5	206.19112598263442
3.	207.57262996669937
3.5	209.20831766552305
4.	211.09969049427983
4.5	213.2484818840428
5.	215.65665811545745
5.5	218.3264195278403
6.	221.26020220594273
6.5	224.46068026152426
7.	227.9307688436111
7.5	231.67362803053078
8.	235.69266777942488
8.5	239.99155413608176
9.	244.57421694106728
9.5	249.44485930923983
10.	254.60796921132547
10.5	260.0683335517555
11.	265.83105522100396
11.5	271.90157370954375
12.	278.2856900130361
12.5	284.9895967468161
13.	292.0199146399106
13.5	299.38373692048987
14.	307.08868357417674
14.5	315.14296811198005
15.	323.55548041564055
15.5	332.33589057703097
16.	341.4947806467491
16.5	351.04381424399605
17.	360.9959587308037
17.5	371.36578233966486
18.	382.16986157436344
18.5	393.4273569917477
19.	405.16085794009734
19.5	417.397681614851
20.	430.17199649851364
