0.	710.22
0.5	710.345004069912
1.	710.7200492782405
1.5	711.345234620828
2.	712.2207250910147
2.5	713.3467516805274
3.	714.7236113816557
3.5	716.3516671916614
4.	718.2313481206256
4.5	720.3631492042085
5.	722.7476315230748
5.5	725.3854222310011
6.	728.2772145939326
6.5	731.423768042592
7.	734.8259082414506
7.5	738.4845271771918
8.	742.4005832700933
8.5	746.5751015120153
9.	751.0091736350223
9.5	755.7039583149689
10.	760.6606814146969
10.5	765.8806362718656
11.	771.3651840367884
11.5	777.1157540660529
12.	783.1338443781224
12.5	789.4210221775688
13.	795.978924455116
13.5	802.8092586711709
14.	809.9138035311997
14.5	817.2944098618889
15.	824.9530015978587
15.5	832.8915768894984
16.	841.1122093434111
16.5	849.6170494080636
17.	858.4083259183946
17.5	867.4883478145191
18.	876.8595060511853
18.5	886.524275716432
19.	896.4852183798997
19.5	906.7449846935486
20.	917.3063172702424
