0.	6.38
0.5	6.421452366709872
1.	6.546097984503788
1.5	6.754822321282867
2.	7.049152018428865
2.5	7.431274096127746
3.	7.903943472434742
3.5	8.470165594985655
4.	9.13256120820707
4.5	9.892427503438233
5.	10.74869200215931
5.5	11.697101570814397
6.	12.729961492990865
6.5	13.83653769589275
7.	15.00401321812734
7.5	16.21877007885357
8.	17.467731133691974
8.5	18.739490618995653
9.	20.025007641198687
9.5	21.317771755288884
10.	22.61352778301562
10.5	23.909762699279096
11.	25.20515763580269
11.5	26.499131012415837
12.	27.791513761260703
12.5	29.082344094584183
13.	30.371749670665203
13.5	31.659885663996242
14.	32.94690528129089
14.5	34.23294765243277
15.	35.51813432419813
15.5	36.80256962431559
16.	38.086342510273255
16.5	39.36952878532572
17.	40.652193208577145
17.5	41.934391334136556
18.	43.21617105101426
18.5	44.497573849262565
19.	45.778635854024
19.5	47.05938866953957
20.	48.339860069948216
